<?xml version="1.0" encoding="UTF-8" standalone="no"?>
<!-- Generated by IcoMoon.io -->

<svg
   xmlns:dc="http://purl.org/dc/elements/1.1/"
   xmlns:cc="http://creativecommons.org/ns#"
   xmlns:rdf="http://www.w3.org/1999/02/22-rdf-syntax-ns#"
   xmlns:svg="http://www.w3.org/2000/svg"
   xmlns="http://www.w3.org/2000/svg"
   xmlns:sodipodi="http://sodipodi.sourceforge.net/DTD/sodipodi-0.dtd"
   xmlns:inkscape="http://www.inkscape.org/namespaces/inkscape"
   version="1.1"
   width="32"
   height="32"
   viewBox="0 0 32 32"
   id="svg6"
   sodipodi:docname="feed.svg"
   inkscape:version="0.92.4 (5da689c313, 2019-01-14)">
  <metadata
     id="metadata12">
    <rdf:RDF>
      <cc:Work
         rdf:about="">
        <dc:format>image/svg+xml</dc:format>
        <dc:type
           rdf:resource="http://purl.org/dc/dcmitype/StillImage" />
      </cc:Work>
    </rdf:RDF>
  </metadata>
  <defs
     id="defs10" />
  <sodipodi:namedview
     pagecolor="#ffffff"
     bordercolor="#666666"
     borderopacity="1"
     objecttolerance="10"
     gridtolerance="10"
     guidetolerance="10"
     inkscape:pageopacity="0"
     inkscape:pageshadow="2"
     inkscape:window-width="1920"
     inkscape:window-height="1136"
     id="namedview8"
     showgrid="false"
     inkscape:zoom="7.375"
     inkscape:cx="16"
     inkscape:cy="16"
     inkscape:window-x="0"
     inkscape:window-y="27"
     inkscape:window-maximized="1"
     inkscape:current-layer="svg6" />
  <title
     id="title2">feed</title>
  <path
     d="m 12,16 c 0,-2.209 1.791,-4 4,-4 2.209,0 4,1.791 4,4 0,2.209 -1.791,4 -4,4 -2.209,0 -4,-1.791 -4,-4 z M 20.761,7.204 C 23.881,8.896 26,12.201 26,16 26,19.799 23.881,23.104 20.761,24.796 22.138,22.605 23,19.475 23,16 23,12.525 22.138,9.395 20.761,7.204 Z M 9,16 c 0,3.475 0.862,6.605 2.239,8.796 C 8.119,23.104 6,19.799 6,16 6,12.201 8.119,8.896 11.239,7.204 9.862,9.395 9,12.525 9,16 Z M 3,16 C 3,21.372 4.7,26.193 7.395,29.491 2.948,26.649 0,21.669 0,16 0,10.331 2.948,5.351 7.395,2.509 4.7,5.807 3,10.628 3,16 Z M 24.605,2.509 C 29.052,5.351 32,10.331 32,16 32,21.669 29.052,26.649 24.605,29.491 27.3,26.193 29,21.372 29,16 29,10.628 27.3,5.807 24.605,2.509 Z"
     id="path4"
     style="fill:#f4f0ec;fill-opacity:1"
     inkscape:connector-curvature="0" />
</svg>
